…
### Data types

#### data.frame/tibble


```r
library(tidyverse) # Activate the tidyverse package
beaches_t <- as_tibble(beaches)
beaches_t
```

```
#>  # A tibble: 344 x 12
#>     date   year month   day season rainfall temperature enterococci day_num
#>     <chr> <int> <int> <int>  <int>    <dbl>       <dbl>       <dbl>   <int>
#>   1 2013…  2013     1     2      1      0          23.4         6.7       2
#>   2 2013…  2013     1     6      1      0          30.3         2         6
#>   3 2013…  2013     1    12      1      0          31.4        69.1      12
#>   4 2013…  2013     1    18      1      0          46.4         9        18
#>   5 2013…  2013     1    24      1      0          27.5        33.9      24
#>   6 2013…  2013     1    30      1      0.6        26.6        26.5      30
#>   7 2013…  2013     2     5      1      0.1        25.7        66.9      36
#>   8 2013…  2013     2    11      1      8          22.2       118.       42
#>   9 2013…  2013     2    17      1     13.6        26.3        75        48
#>  10 2013…  2013     2    23      1      7.2        24.8       311.       54
#>  # … with 334 more rows, and 3 more variables: month_num <int>,
#>  #   month_name <chr>, season_name <chr>
```
…
